{
  "id": "alignment",
  "name": "Alignment",
  "descr": "Choose one of the pronunciation variants of a phonetization and performs the time-alignment of such phonemes to the related audio, and also the tokens if available. Requires the Phonetization grammar, and optionally the Normalized text. Produces time-aligned phonemes and optionally time-aligned tokens.",
  "required": "phonetize",
  "api": "sppasAlign",

  "anntype": [
    "STANDALONE"
  ],

  "resources": [
    {
      "path": "models",
      "type": "directory",
      "ext": "",
      "name": "models-"
    }
  ],

  "options": [
    {
      "id": "inputpattern1",
      "type": "str",
      "value": "",
      "text": "Pattern of the audio file"
    },
    {
      "id": "inputpattern2",
      "type": "str",
      "value": "-phon",
      "text": "Pattern of the file with the phonetization"
    },
    {
      "id": "inputpattern3",
      "type": "str",
      "value": "-token",
      "text": "Pattern of the optional file with the normalized text"
    },
    {
      "id": "outputpattern",
      "type": "str",
      "value": "-palign",
      "text": "Pattern of the output file with time-aligned phonemes and tokens"
    },
    {
      "id": "aligner",
      "type": "str",
      "value": "julius",
      "text": "Speech automatic aligner system. Can be: julius, hvite, basic"
    },
    {
      "id": "basic",
      "type": "bool",
      "value": false,
      "text": "Perform basic alignment if the aligner fails"
    },
    {
      "id": "clean",
      "type": "bool",
      "value": true,
      "text": "Remove working directory"
    }
  ],

  "refs": {
    "bigi2012lnai": "https://hal.archives-ouvertes.fr/hal-00983698/document",
    "bigi2014apclc": "https://sppas.org/bigi/Doc/bigi2014apclc-slides.pdf",
    "bigi2014evalita": "https://sppas.org/bigi/Doc/bigi2014evalita.pdf",
    "bigi2018jep": "http://dx.doi.org/10.21437/JEP.2018-74",
    "bigi2018linguagem": "http://www.periodicos.letras.ufmg.br/index.php/relin/article/view/13026"
  }

}