{
  "id": "facedetect",
  "name": "Face Detection",
  "descr": "Detect faces on an image or a video combining results of several methods depending on the models you choose. Two different types of models are available: the ones based on Artificial Neural Networks (ANN) and the other one based on Haar cascade classifiers. Requires an image or a video. Produces an image or a video and an annotated file with coordinates of the detected faces.",
  "required": "",
  "api": "sppasFaceDetection",
  "devel": 70,

  "resources": [
    {
      "path": "faces",
      "type": "file",
      "ext": "",
      "name": "res10_300x300_ssd_iter_140000_fp16.caffemodel",
      "lang": false
    },
    {
      "path": "faces",
      "type": "file",
      "ext": "",
      "name": "opencv_face_detector_uint8.pb",
      "lang": false
    },
    {
      "path": "faces",
      "type": "file",
      "ext": "",
      "name": "haarcascade_frontalface_alt.xml",
      "lang": false
    },
    {
      "path": "faces",
      "type": "file",
      "ext": "",
      "name": "haarcascade_profileface.xml",
      "lang": false
    }
  ],

  "anntype": [
    "STANDALONE"
  ],

  "options": [
    {
      "id": "inputpattern",
      "type": "str",
      "value": "",
      "text": "Input pattern of the image, or video file."
    },
    {
      "id": "nbest",
      "type": "int",
      "value": "0",
      "text": "Maximum number of faces to select among those detected (0=auto)"
    },
    {
      "id": "score",
      "type": "float",
      "value": "0.2",
      "text": "Minimum confidence score to select detected faces"
    },
    {
      "id": "portrait",
      "type": "bool",
      "value": false,
      "text": "The selfie instead of the face in the output image(s)"
    },
    {
      "id": "csv",
      "type": "bool",
      "value": false,
      "text": "Save coordinates of detected faces in a CSV file instead of XRA"
    },
    {
      "id": "folder",
      "type": "bool",
      "value": false,
      "text": "Save result in a folder with image files -- if video input only"
    },
    {
      "id": "tag",
      "type": "bool",
      "value": true,
      "text": "Surround the detected faces in the output image/video(s)"
    },
    {
      "id": "crop",
      "type": "bool",
      "value": false,
      "text": "Save detected faces in cropped images"
    },
    {
      "id": "width",
      "type": "int",
      "value": 0,
      "text": "Resize all the cropped images to a fixed width (0=no)"
    },
    {
      "id": "height",
      "type": "int",
      "value": 0,
      "text": "Resize all the cropped images to a fixed height (0=no)"
    },
    {
      "id": "model:opencv_face_detector_uint8.pb",
      "type": "bool",
      "value": true,
      "text": "Enable the opencv's ANN TensorFlow model."
    },
    {
      "id": "model:haarcascade_frontalface_alt.xml",
      "type": "bool",
      "value": true,
      "text": "Enable the opencv's HaarCascade Frontal face model."
    },
    {
      "id": "model:res10_300x300_ssd_iter_140000_fp16.caffemodel",
      "type": "bool",
      "value": false,
      "text": "Enable the opencv's ANN Caffe model."
    },
    {
      "id": "model:haarcascade_profileface.xml",
      "type": "bool",
      "value": false,
      "text": "Enable the opencv's HaarCascade Profile face model."
    },
    {
      "id": "model:mediapipe",
      "type": "bool",
      "value": false,
      "text": "Enable the MediaPipe Face Detection system (very fast)."
    }
  ]
}

