{
  "id": "lexmetric",
  "name": "Lexical Metric",
  "descr": "Estimate occurrences and ranks of annotation labels.",
  "required": "",
  "api": "sppasLexMetric",
  "devel": 90,

  "resources": [
  ],

  "anntype": [
    "STANDALONE"
  ],

  "options": [
    {
      "id": "inputpattern",
      "type": "str",
      "value": "-palign",
      "text": "Pattern of the input file to estimate lexical metrics on."
    },
    {
      "id": "outputpattern",
      "type": "str",
      "value": "-lexm",
      "text": "Pattern of the output file with lexical metrics."
    },
    {
      "id": "tiername",
      "type": "str",
      "value": "TokensAlign",
      "text": "Input tier to estimate tags."
    },
    {
      "id": "alt",
      "type": "bool",
      "value": true,
      "text": "Consider alternative tags in the estimations"
    },
    {
      "id": "separators",
      "type": "string",
      "value": "# + * @ dummy",
      "text": "Evaluate the number of labels in segments not including:"
    }
  ]
}

