{
  "id": "spklexrep",
  "name" : "Speaker Lexical Repeated",
  "descr": "Detect repeated sequences in two distinct files of time-aligned tokens of a speaker. This annotation needs to be tested on several large corpora and evaluated.",
  "required": "alignment",
  "api": "sppasLexRep",
  "devel": 40,

  "anntype": [
    "SPEAKER"
  ],

  "resources": [
    {
      "path": "vocab",
      "type": "file",
      "ext": ".stp",
      "name": ""
    }
  ],

  "options": [
    {
      "id": "inputpattern",
      "type": "str",
      "value": "-palign",
      "text": "Pattern of the input file with time-aligned words or lemmas."
    },
    {
      "id": "outputpattern",
      "type": "str",
      "value": "-spkrep",
      "text": "Pattern of the file with detected lexical reprises"
    },
    {
      "id": "span",
      "type": "int",
      "value": 10,
      "text": "Span window length in number of tokens"
    },
    {
      "id": "spandur",
      "type": "float",
      "value": 3.0,
      "text": "Span window maximum duration (in seconds)"
    },
    {
      "id": "stopwords",
      "type": "bool",
      "value": true,
      "text": "Add stop-words estimated from the given data"
    },
    {
      "id": "alpha",
      "type": "float",
      "value": 0.5,
      "text": "Coefficient to add data-specific stop-words"
    }
  ]
}
