{
  "id": "rms",
  "name": "RMS",
  "descr": "Estimate the root-mean-square values of an audio channel in given intervals, i.e. sqrt(sum(S_i^2)/n). This is a measure of the power in an audio signal.",
  "required": "",
  "api": "sppasRMS",
  "devel": 80,

  "resources": [
  ],

  "anntype": [
    "STANDALONE"
  ],

  "options": [
    {
      "id": "inputpattern1",
      "type": "str",
      "value": "",
      "text": "Pattern of the audio file."
    },
    {
      "id": "inputpattern2",
      "type": "str",
      "value": "-palign",
      "text": "Pattern of the input file with intervals."
    },
    {
      "id": "outputpattern",
      "type": "str",
      "value": "-rms",
      "text": "Pattern of the output file with RMS values."
    },
    {
      "id": "tiername",
      "type": "str",
      "value": "PhonAlign",
      "text": "Name of the tier to fix the intervals in which RMS is estimated: "
    },
    {
      "id": "minmax",
      "type": "bool",
      "value": false,
      "text": "Add tiers with min and max values"
    }
  ]
}

