{
  "id": "selfrepet",
  "name": "Self-Repetitions",
  "descr": "Searches for sources and echos of a speaker. The rules implemented in the algorithm were not validated by experts: this annotation needs to be evaluated. Requires time-aligned tokens.",
  "required": "alignment",
  "api": "sppasSelfRepet",
  "devel": 60,

  "resources": [
    {
      "path": "vocab",
      "type": "file",
      "ext": ".stp",
      "name": ""
    }
  ],

  "anntype": [
    "STANDALONE"
  ],

  "options": [
    {
      "id": "inputpattern",
      "type": "str",
      "value": "-palign",
      "text": "Input file pattern (time-aligned words or lemmas)"
    },
    {
      "id": "outputpattern",
      "type": "str",
      "value": "-srepet",
      "text": "Output file pattern"
    },
    {
      "id": "span",
      "type": "int",
      "value": 3,
      "text": "Span window length in number of IPUs"
    },
    {
      "id": "stopwords",
      "type": "bool",
      "value": true,
      "text": "Add stop-words estimated from the given data"
    },
    {
      "id": "alpha",
      "type": "float",
      "value": 0.5,
      "text": "Coefficient to add data-specific stop-words"
    }
  ]
}
