{
  "annotate": [
    {
      "id": "momel",
      "config": "momel.json",
      "cli": "momel.py"
    },

    {
      "id": "intsint",
      "config": "intsint.json",
      "cli": "intsint.py"
    },

    {
      "id": "fillipus",
      "config": "fillipus.json",
      "cli": "fillipus.py"
    },

    {
      "id": "searchipus",
      "config": "searchipus.json",
      "cli": "searchipus.py"
    },

    {
      "id": "textnorm",
      "config": "textnorm.json",
      "cli": "normalize.py"
    },

    {
      "id": "phonetize",
      "config": "phonetize.json",
      "cli": "phonetize.py"
    },

    {
      "id": "alignment",
      "config": "alignment.json",
      "cli": "alignment.py"
    },

    {
      "id": "activity",
      "config": "activity.json",
      "cli": ""
    },

    {
      "id": "iva",
      "config": "iva.json",
      "cli": "iva.py"
    },

    {
      "id": "syllabify",
      "config": "syllabify.json",
      "cli": "syllabify.py"
    },

    {
      "id": "tga",
      "config": "tga.json",
      "cli": "tga.py"
    },

    {
      "id": "rms",
      "config": "rms.json",
      "cli": "rms.py"
    },

    {
      "id": "selfrepet",
      "config": "selfrepet.json",
      "cli": "selfrepetition.py"
    },

    {
      "id": "stopwords",
      "config": "stopwords.json",
      "cli": "stopwords.py"
    },

    {
      "id": "lexmetric",
      "config": "lexmetric.json",
      "cli": ""
    },

    {
      "id": "otherrepet",
      "config": "otherrepet.json",
      "cli": "otherrepetition.py"
    },

    {
      "id": "reoccurrences",
      "config": "reoccurrences.json",
      "cli": "reoccurrences.py"
    },

    {
      "id": "overlaps",
      "config": "overlaps.json",
      "cli": "overlaps.py"
    },

    {
      "id": "spklexrep",
      "config": "lexrep.json",
      "cli": "spklexrep.py"
    },

    {
      "id": "facedetect",
      "config": "facedetect.json",
      "cli": "facedetection.py"
    },

    {
      "id": "faceident",
      "config": "faceidentity.json",
      "cli": "faceidentity.py"
    },

    {
      "id": "facesights",
      "config": "facesights.json",
      "cli": "facesights.py"
    },

    {
      "id": "handpose",
      "config": "handpose.json",
      "cli": ""
    },

    {
      "id": "cuedspeech",
      "config": "cuedspeech.json",
      "cli": "cuedspeech.py"
    }
  ],

  "analyze": [
    {
      "id": "datastats",
      "cli": "stats.py"
    }
  ],

  "manage": [
    {
      "id": "convert",
      "cli": "trsconvert.py"
    },

    {
      "id": "merge",
      "cli": "trsmerge.py"
    }
  ]

}
