{
  "id": "tga",
  "name": "Time Group Analysis",
  "descr": "Calculates mean, median, nPVI, slope and intercept functions within inter-unit groups. Proposed by D. Gibbon. Requires time-aligned syllables.",
  "required": "syllabify",
  "api": "sppasTGA",

  "resources": [
  ],

  "anntype": [
    "STANDALONE"
  ],

  "options": [
    {
      "id": "inputpattern",
      "type": "str",
      "value": "-syll",
      "text": "Input pattern of the file with syllabification."
    },
    {
      "id": "outputpattern",
      "type": "str",
      "value": "-tga",
      "text": "Output pattern of the file with TGA."
    },
    {
      "id": "original",
      "type": "bool",
      "value": false,
      "text": "Use the original estimation of intercept and slope"
    },
    {
      "id": "annotationpro",
      "type": "bool",
      "value": true,
      "text": "Use the estimation of intercept and slope proposed in Annotation Pro (annotationpro.org)"
    },
    {
      "id": "tg_prefix_label",
      "type": "string",
      "value": "tg_",
      "text": "Prefix of each time group label:"
    },
    {
      "id": "with_radius",
      "type": "int",
      "value": 0,
      "text": "Duration estimation: Use 0 to estimate syllable durations with midpoint values, use -1 for Radius-, or 1 for Radius+."
    }
  ],

  "refs": {
    "gibbon2016": "https://wwwhomes.uni-bielefeld.de/gibbon/TGA/Papers/2016-Phonetician_111-112-gibbon-yu.pdf",
    "yue2013": "https://wwwhomes.uni-bielefeld.de/gibbon/TGA/Papers/TRASP-2013-JueYu-paper-09.pdf"
  }
}